<?xml version="1.0" encoding="UTF-8" standalone="no"?>
<svg
   xmlns:dc="http://purl.org/dc/elements/1.1/"
   xmlns:cc="http://creativecommons.org/ns#"
   xmlns:rdf="http://www.w3.org/1999/02/22-rdf-syntax-ns#"
   xmlns:svg="http://www.w3.org/2000/svg"
   xmlns="http://www.w3.org/2000/svg"
   xmlns:sodipodi="http://sodipodi.sourceforge.net/DTD/sodipodi-0.dtd"
   xmlns:inkscape="http://www.inkscape.org/namespaces/inkscape"
   viewBox="0 0 108 108"
   id="vector"
   version="1.1"
   sodipodi:docname="ic_launcher_rect.svg"
   inkscape:version="0.92.4 5da689c313, 2019-01-14"
   inkscape:export-filename="/Users/hnauhnauer/Desktop/remoteteaching.png"
   inkscape:export-xdpi="960"
   inkscape:export-ydpi="960">
  <metadata
     id="metadata4791">
    <rdf:RDF>
      <cc:Work
         rdf:about="">
        <dc:format>image/svg+xml</dc:format>
        <dc:type
           rdf:resource="http://purl.org/dc/dcmitype/StillImage" />
        <dc:title></dc:title>
      </cc:Work>
    </rdf:RDF>
  </metadata>
  <defs
     id="defs4789" />
  <sodipodi:namedview
     pagecolor="#ffffff"
     bordercolor="#666666"
     borderopacity="1"
     objecttolerance="10"
     gridtolerance="10"
     guidetolerance="10"
     inkscape:pageopacity="0"
     inkscape:pageshadow="2"
     inkscape:window-width="1920"
     inkscape:window-height="1047"
     id="namedview4787"
     showgrid="false"
     inkscape:zoom="2.1851852"
     inkscape:cx="-28.372881"
     inkscape:cy="54"
     inkscape:window-x="0"
     inkscape:window-y="33"
     inkscape:window-maximized="1"
     inkscape:current-layer="vector" />
  <rect
     id="rect5361"
     width="54"
     height="108"
     x="0"
     y="3.8146973e-06"
     style="stroke-width:2.53134942;fill:#253238;fill-opacity:1" />
  <rect
     style="stroke-width:2.53134942;fill:#455a64;fill-opacity:1"
     y="3.8146973e-06"
     x="54"
     height="108"
     width="54"
     id="rect5363" />
  <path
     id="path"
     d="M 54 32 L 78 46 L 54 60 L 30 46 Z"
     fill="#ff5722" />
  <path
     id="path_1"
     d="M 30 46 L 54 60 L 54 108 L 30 108 Z"
     fill="#e64a19" />
  <path
     id="path_2"
     d="M 78 46 L 54 60 L 54 108 L 78 108 Z"
     fill="#bf360c" />
</svg>
